Intro to data wrangling • WILD6900
…
## Create a new data frame so we don't lose counts when we remove duplicates
experience_df <- dplyr::distinct(dove_counts, ObsN, Year)
dplyr::filter(experience_df, ObsN == 981319 & Year == 2015)
#>   Year   ObsN
#> 1 2015 981319
nrow(experience_df)
#> [1] 1082

Now we’re ready to estimate experience. Remember that we need to estimate experience for each observer separately. This is where group_by() comes in. We use group_by() to tell dplyr that we want to perform all subsequent operations on each observer:

experience_df <- dplyr::group_by(experience_df, ObsN)

experience_df
#> # A tibble: 1,082 x 2
#> # Groups:   ObsN [196]
#>     Year    ObsN
#>    <int>   <int>
#>  1  1968      NA
#>  2  1969 1080065
#>  3  1970 1080065
#>  4  1971 1080065
#>  5  1972 1080065
#>  6  1973  990140
#>  7  1974  990140
#>  8  1975      NA
#>  9  1976      NA
#> 10  1977      NA
#> # ... with 1,072 more rows
…
Data summaries

Why stop here? Right now, our counts are at the route-level - ultimately, this is the way we want it. That allows us to build a model directly from the raw observations rather than derived variables. However, using the raw counts involves some modeling complexities that we have not discussed yet. So in the meantime, it might be useful to ignore the route-level variation in counts and just work with the total number of doves counted in each year.

We already learned about using group_by to add new columns by performing operations on groups of data. In this case, we again need to group the data but this type by Year. But mutate won’t work for this purpose. We don’t want to add a new observation but instead summarize the counts in each year. In other words, we don’t want to add # routes x # years new values, we want # years new observations. This task is performed by dplyr::summarise(), which takes a data frame and creates a new data frame based on specified summaries of the original data. In our case, the summary we want is sum:

## Group by year
total_dove_counts <- dplyr::group_by(dove_counts, Year)

## Create annual total counts (note the need for na.rm = TRUE because we have NA counts)
total_dove_counts <- dplyr::summarise(total_dove_counts, Count = sum(count, na.rm = TRUE))

total_dove_counts
#> # A tibble: 48 x 2
#>     Year Count
#>    <int> <dbl>
#>  1  1968     0
#>  2  1969     0
#>  3  1970     0
#>  4  1971     0
#>  5  1972     0
#>  6  1973     0
#>  7  1974     0
#>  8  1975     0
#>  9  1976     0
#> 10  1977     0
#> # ... with 38 more rows
…
